%YAML 1.1
%TAG !u! tag:unity3d.com,2011:
--- !u!114 &11400000
MonoBehaviour:
  m_ObjectHideFlags: 0
  m_CorrespondingSourceObject: {fileID: 0}
  m_PrefabInstance: {fileID: 0}
  m_PrefabAsset: {fileID: 0}
  m_GameObject: {fileID: 0}
  m_Enabled: 1
  m_EditorHideFlags: 0
  m_Script: {fileID: 11500000, guid: c98581d68c314e0cb8f1549ee29c38a5, type: 3}
  m_Name: PurpleSword
  m_EditorClassIdentifier: 
  <Name>k__BackingField: PurpleSword
  <Damage>k__BackingField: 1
  <weaponColor>k__BackingField: {r: 0.85882354, g: 0.16078432, b: 0.9254902, a: 1}
  <AttackType>k__BackingField: 0
